{
  "EDITOR_STATE": {
    "allProjectFiles": {
      "06c8ab51-b791-48f1-bdd4-533bfbe610e5": {
        "id": "06c8ab51-b791-48f1-bdd4-533bfbe610e5",
        "parent": null,
        "name": "kbitvcs",
        "type": "DIRECTORY",
        "isDirectory": true,
        "children": [
          "9f968f72-0d50-4925-b2e6-10d9a0ebf358"
        ],
        "isRemovable": false,
        "filePath": "kbitvcs"
      },
      "9f968f72-0d50-4925-b2e6-10d9a0ebf358": {
        "id": "9f968f72-0d50-4925-b2e6-10d9a0ebf358",
        "parent": "06c8ab51-b791-48f1-bdd4-533bfbe610e5",
        "name": "lambda.js",
        "type": "JS_LAMBDA",
        "isDirectory": false,
        "children": [],
        "isRemovable": true,
        "filePath": "kbitvcs/lambda.js",
        "code": "exports.handler = function(event, context, callback) {\n    \n    callback(null, {\"message\": \"Successfully executed\"});\n}",
        "config": {
          "runtime": "nodejs8.10",
          "handler": "handler",
          "timeout": 60,
          "memory": 128,
          "layers": []
        },
        "triggers": []
      }
    },
    "rootNode": "06c8ab51-b791-48f1-bdd4-533bfbe610e5",
    "openFiles": [
      "9f968f72-0d50-4925-b2e6-10d9a0ebf358"
    ],
    "currentFileId": "9f968f72-0d50-4925-b2e6-10d9a0ebf358",
    "resources": {},
    "customTemplate": {
      "dialect": null,
      "definitions": null
    },
    "envVariables": [
      {
        "lambdaId": "all",
        "varKey": "SIGMA_AWS_ACC_ID",
        "varValue": null,
        "shouldPersist": false,
        "displayOnly": false,
        "editable": false
      }
    ],
    "packageJSON": {
      "dependencies": {}
    }
  },
  "PROJECT_META": {
    "projectName": "kbitvcs",
    "projectDescription": "",
    "projectVersion": "1.0.0",
    "projectRegion": "us-east-1",
    "platform": "AWS",
    "platformRegions": {},
    "lastSave": 1568278968591
  },
  "VCS_STATE": {
    "provider": "BitBucket",
    "repo": {
      "name": "kbitvcs",
      "url": "https://bitbucket.org/KumudikaR/kbitvcs"
    }
  }
}